{
    "fluentMethods": true,
    "relationships": [],
    "fields": [
        {
            "fieldName": "text",
            "fieldType": "String",
            "fieldValidateRules": [
                "required"
            ]
        },
        {
            "fieldName": "defaultTemplate",
            "fieldType": "Boolean",
            "fieldValidateRules": [
                "required"
            ]
        },
        {
            "fieldName": "clickThrough",
            "fieldType": "String"
        },
        {
            "fieldName": "job",
            "fieldType": "UUID",
            "fieldValidateRules": [
                "required"
            ]
        },
        {
            "fieldName": "language",
            "fieldType": "UUID"
        }
    ],
    "changelogDate": "20180208162948",
    "entityTableName": "template",
    "dto": "mapstruct",
    "pagination": "no",
    "service": "serviceImpl",
    "jpaMetamodelFiltering": false
}